<?xml version="1.0" encoding="UTF-8"?>
<kml xmlns="http://www.opengis.net/kml/2.2" xmlns:gx="http://www.google.com/kml/ext/2.2" xmlns:kml="http://www.opengis.net/kml/2.2" xmlns:atom="http://www.w3.org/2005/Atom">
<Document>
	<name>Polygon_Flatsim_Okavango.kml</name>
	<Style id="sn_ylw-pushpin">
		<BalloonStyle>
		</BalloonStyle>
		<LineStyle>
			<color>ff0880fd</color>
		</LineStyle>
		<PolyStyle>
			<fill>0</fill>
		</PolyStyle>
	</Style>
	<Style id="sh_ylw-pushpin">
		<IconStyle>
			<scale>1.2</scale>
		</IconStyle>
		<BalloonStyle>
		</BalloonStyle>
		<LineStyle>
			<color>ff0880fd</color>
		</LineStyle>
		<PolyStyle>
			<fill>0</fill>
		</PolyStyle>
	</Style>
	<StyleMap id="msn_ylw-pushpin">
		<Pair>
			<key>normal</key>
			<styleUrl>#sn_ylw-pushpin</styleUrl>
		</Pair>
		<Pair>
			<key>highlight</key>
			<styleUrl>#sh_ylw-pushpin</styleUrl>
		</Pair>
	</StyleMap>
	<Placemark id="7">
		<name>Okavango</name>
		<description>Delta de l&apos;Okavango</description>
		<styleUrl>#msn_ylw-pushpin</styleUrl>
		<Polygon id="6">
			<outerBoundaryIs>
				<LinearRing id="8">
					<coordinates>
						20.10865956253383,-21.7134137485704,0 20.78759073454652,-21.71767254055965,0 20.7880157635243,-21.71934311210763,0 20.97762292962563,-21.71886457242306,0 21.40588028022759,-21.72155094042215,0 21.40486591346895,-21.71778627603307,0 22.86881057734944,-21.71409150208497,0 22.86970293001531,-21.7176122992031,0 24.93307301519896,-21.70012029028661,0 24.9330754232489,-21.70012964363875,0 24.93507026764201,-21.70010335878325,0 25.48961810619824,-21.69540223618469,0 25.48893337150645,-21.6928054403572,0 26.9699176631972,-21.67329140796254,0 26.97072544037124,-21.67646132271725,0 27.44102890708334,-21.66718917670821,0 27.34601985059896,-16.55969280481747,0 25.98082586796011,-16.57429275295795,0 23.92317331475951,-16.58196885354318,0 21.79483606938851,-16.56930343111761,0 20.18697358099797,-16.54635991472248,0 20.16110153977995,-18.27579730252862,0 20.10865956253383,-21.7134137485704,0 
					</coordinates>
				</LinearRing>
			</outerBoundaryIs>
		</Polygon>
	</Placemark>
</Document>
</kml>
