<?xml version="1.0" encoding="UTF-8"?>
<kml xmlns="http://www.opengis.net/kml/2.2" xmlns:gx="http://www.google.com/kml/ext/2.2" xmlns:kml="http://www.opengis.net/kml/2.2" xmlns:atom="http://www.w3.org/2005/Atom">
<Document>
	<name>Polygon_Flatsim_Afar.kml</name>
	<Style id="sn_ylw-pushpin">
		<BalloonStyle>
		</BalloonStyle>
		<LineStyle>
			<color>ff66ccfe</color>
		</LineStyle>
		<PolyStyle>
			<fill>0</fill>
		</PolyStyle>
	</Style>
	<Style id="sh_ylw-pushpin">
		<IconStyle>
			<scale>1.2</scale>
		</IconStyle>
		<BalloonStyle>
		</BalloonStyle>
		<LineStyle>
			<color>ff66ccfe</color>
		</LineStyle>
		<PolyStyle>
			<fill>0</fill>
		</PolyStyle>
	</Style>
	<StyleMap id="msn_ylw-pushpin">
		<Pair>
			<key>normal</key>
			<styleUrl>#sn_ylw-pushpin</styleUrl>
		</Pair>
		<Pair>
			<key>highlight</key>
			<styleUrl>#sh_ylw-pushpin</styleUrl>
		</Pair>
	</StyleMap>
	<Placemark id="11">
		<name>Afar</name>
		<description>Dépression Afar</description>
		<styleUrl>#msn_ylw-pushpin</styleUrl>
		<Polygon id="10">
			<outerBoundaryIs>
				<LinearRing id="12">
					<coordinates>
						38.40012313187285,8.777403013345726,0 40.65555503458354,8.437287872552252,0 40.91038053361507,9.638787855873298,0 41.43078109010371,9.749668651660553,0 42.75907991901854,9.508175103367888,0 42.76030704359157,9.502136003668296,0 42.77520126936025,9.505244134814321,0 42.98195530052183,9.467654878901318,0 42.99890303784929,9.551926281631482,0 45.04005546405987,9.977874533539186,0 44.16604491369429,14.47666520025934,0 42.29669084030209,14.1300510562447,0 42.06829022431653,14.18259876648856,0 41.97414134857726,14.6544107283573,0 42.08952644556669,15.19845044430089,0 41.85509872582512,15.25097370317427,0 41.85296268591778,15.26167812392702,0 41.82896361020197,15.25682924553536,0 39.78135907319047,15.71559266859095,0 39.60039105798334,14.80655868425764,0 39.56805059005835,14.80002447444245,0 39.58379003191394,14.7231688274665,0 38.40012313187285,8.777403013345726,0 
					</coordinates>
				</LinearRing>
			</outerBoundaryIs>
		</Polygon>
	</Placemark>
</Document>
</kml>
