<?xml version="1.0" encoding="UTF-8"?>
<kml xmlns="http://www.opengis.net/kml/2.2" xmlns:gx="http://www.google.com/kml/ext/2.2" xmlns:kml="http://www.opengis.net/kml/2.2" xmlns:atom="http://www.w3.org/2005/Atom">
<Document>
	<name>Polygon_Flatsim_Ozark.kml</name>
	<Style id="sh_ylw-pushpin">
		<IconStyle>
			<scale>1.2</scale>
		</IconStyle>
		<BalloonStyle>
		</BalloonStyle>
		<LineStyle>
			<color>ff800080</color>
		</LineStyle>
		<PolyStyle>
			<fill>0</fill>
		</PolyStyle>
	</Style>
	<Style id="sn_ylw-pushpin">
		<BalloonStyle>
		</BalloonStyle>
		<LineStyle>
			<color>ff800080</color>
		</LineStyle>
		<PolyStyle>
			<fill>0</fill>
		</PolyStyle>
	</Style>
	<StyleMap id="msn_ylw-pushpin">
		<Pair>
			<key>normal</key>
			<styleUrl>#sn_ylw-pushpin</styleUrl>
		</Pair>
		<Pair>
			<key>highlight</key>
			<styleUrl>#sh_ylw-pushpin</styleUrl>
		</Pair>
	</StyleMap>
	<Placemark id="23">
		<name>Ozark</name>
		<description>Aquifère d&apos;Ozark</description>
		<styleUrl>#msn_ylw-pushpin</styleUrl>
		<Polygon id="22">
			<outerBoundaryIs>
				<LinearRing id="24">
					<coordinates>
						-99.73221602989342,40.31449001698218,0 -98.80671916250525,36.66058884838409,0 -98.02830334390988,33.35343325219582,0 -96.08171967924899,33.70280358902669,0 -96.02605298222542,33.46814332674796,0 -94.0778065767326,33.79313473055088,0 -94.00380056825203,33.47933507188206,0 -91.95555453250199,33.79524276244931,0 -91.91871268535293,33.63944114302866,0 -90.00558260483892,33.90418039134418,0 -89.94224070775786,33.62588462313004,0 -87.27936585026799,33.9665737677308,0 -87.92225676030988,37.30826289041058,0 -87.91119625686559,37.30961298996565,0 -88.54846644840612,40.38734836750061,0 -90.46925541931282,40.14330393988394,0 -90.56538281639317,40.58114645103809,0 -92.63460668138937,40.26690673042271,0 -92.7046204493565,40.59872481587531,0 -94.69939343327425,40.33654198999324,0 -94.79548512332792,40.7717866696714,0 -96.77031226703889,40.51957726987351,0 -96.8092554571153,40.69561280808334,0 -99.73221602989342,40.31449001698218,0 
					</coordinates>
				</LinearRing>
			</outerBoundaryIs>
		</Polygon>
	</Placemark>
</Document>
</kml>
